Exploratory Analysis
…
# now we tokenize the data into a tabble with 1 word per row
news_tidy <- news_df %>% unnest_tokens(word, text)
blogs_tidy <- blogs_df %>% unnest_tokens(word, text)
twitter_tidy <- twitter_df %>% unnest_tokens(word, text)

Words Frequency

In order to get accurate word frequencies we must filter out stop words, which are words that are not useful for the analysis, common words like the, of, to, and so on. To filter these words we use tidyr anti_joint function combined with tidytext stop_words built-in table. Before we do that I will demonstrate the word frequency without removing the stop words.

news_tidy %>% count(word, sort = TRUE)

## # A tibble: 79,459 x 2
##    word       n
##    <chr>  <int>
##  1 the   151717
##  2 to     69757
##  3 and    68605
##  4 a      67426
##  5 of     59315
##  6 in     51895
##  7 for    27166
##  8 that   26384
##  9 is     21973
## 10 on     20815
## # ... with 79,449 more rows

We see in the results above that the highest frequency words are stop words which should be removed to get more meaningful results. ### Removing Stop Words

data("stop_words")
news_tidy <- news_tidy %>% anti_join(stop_words)

## Joining, by = "word"

news_tidy %>% count(word, sort = TRUE)

## # A tibble: 78,758 x 2
##    word        n
##    <chr>   <int>
##  1 time     4474
##  2 people   3673
##  3 city     2902
##  4 school   2702
##  5 percent  2635
##  6 game     2591
##  7 day      2477
##  8 home     2438
##  9 million  2377
## 10 county   2262
## # ... with 78,748 more rows

blogs_tidy <- blogs_tidy %>% anti_join(stop_words)

## Joining, by = "word"

blogs_tidy %>% count(word, sort = TRUE)

## # A tibble: 296,713 x 2
##    word       n
##    <chr>  <int>
##  1 time   90918
##  2 people 59576
##  3 day    52378
##  4 love   45233
##  5 life   41251
##  6 its   38657
##  7 world  29305
##  8 im    29189
##  9 dont  28389
## 10 book   28151
## # ... with 296,703 more rows

twitter_tidy <- twitter_tidy %>% anti_join(stop_words)

## Joining, by = "word"

twitter_tidy %>% count(word, sort = TRUE)

## # A tibble: 344,708 x 2
##    word         n
##    <chr>    <int>
##  1 love    106738
##  2 day      92800
##  3 rt       89557
##  4 time     76806
##  5 lol      70137
##  6 people   52043
##  7 happy    49009
##  8 follow   48117
##  9 tonight  44701
## 10 night    41446
## # ... with 344,698 more rows
…
